{
"total": 200,
  "per_page": 15,
  "current_page": 1,
  "last_page": 14,
  "next_page_url": "null",
  "prev_page_url": null,
  "from": 1,
  "to": 15,
    "data": [
    {
        "amount": 0.001,
        "created_at": "2018-04-23T13:53:02.990573",
        "ip":"192.168.1.1",
        "type":1
      },
      {
        "amount": 0.001,
        "created_at": "2018-04-23T13:53:02.990573",
        "ip":"192.168.1.1",
        "type":1
      },
      { "amount": 0.001,
        "created_at": "2018-04-23T13:53:02.990573",
        "ip":"192.168.1.1",
        "type":1
      },
       {
         "amount": 0.001,
        "created_at": "2018-04-23T13:53:02.990573",
        "ip":"192.168.1.1",
        "type":1
      },
       {
          "amount": 0.001,
        "created_at": "2018-04-23T13:53:02.990573",
        "ip":"192.168.1.1",
        "type":1
      },
       {
          "amount": 0.001,
        "created_at": "2018-04-23T13:53:02.990573",
        "ip":"192.168.1.1",
        "type":1
      },
       {
         "amount": 0.001,
        "created_at": "2018-04-23T13:53:02.990573",
        "ip":"192.168.1.1",
        "type":1
      },
      {
         "amount": 0.001,
        "created_at": "2018-04-23T13:53:02.990573",
        "ip":"192.168.1.1",
        "type":1
      },
      {
         "amount": 0.001,
        "created_at": "2018-04-23T13:53:02.990573",
        "ip":"192.168.1.1",
        "type":1
      }
  ]
}
